%YAML 1.1
%TAG !u! tag:unity3d.com,2011:
--- !u!114 &11400000
MonoBehaviour:
  m_ObjectHideFlags: 0
  m_CorrespondingSourceObject: {fileID: 0}
  m_PrefabInstance: {fileID: 0}
  m_PrefabAsset: {fileID: 0}
  m_GameObject: {fileID: 0}
  m_Enabled: 1
  m_EditorHideFlags: 0
  m_Script: {fileID: 11500000, guid: 42dea43f1db55a5439a31bbd97d3a3bd, type: 3}
  m_Name: Ivek Character Sprites
  m_EditorClassIdentifier: 
  BattleIdle:
    Delay: 0.05
    Sprites:
    - {fileID: 1380531195, guid: 8ab174ee2e709a24e8e2d5ed3e5f736a, type: 3}
  BattleHurt:
    Delay: 0.4
    Sprites:
    - {fileID: -1704725189, guid: 8ab174ee2e709a24e8e2d5ed3e5f736a, type: 3}
  BattleMoveForward:
    Delay: 0.15
    Sprites:
    - {fileID: 1380531195, guid: 8ab174ee2e709a24e8e2d5ed3e5f736a, type: 3}
  BattleMoveBackward:
    Delay: 0.15
    Sprites:
    - {fileID: 1380531195, guid: 8ab174ee2e709a24e8e2d5ed3e5f736a, type: 3}
  BattleIncapacitate:
    Delay: 0.15
    Sprites:
    - {fileID: 1380531195, guid: 8ab174ee2e709a24e8e2d5ed3e5f736a, type: 3}
  Walking: []
  Running: []
