{
    "name": "Azil.Editor",
    "rootNamespace": "Azil.Editor",
    "references": [
        "GUID:37a51d2cbe5ef814d86cf94e07fd617b"
    ],
    "includePlatforms": [
        "Editor"
    ],
    "excludePlatforms": [],
    "allowUnsafeCode": false,
    "overrideReferences": false,
    "precompiledReferences": [],
    "autoReferenced": true,
    "defineConstraints": [
        "UNITY_EDITOR"
    ],
    "versionDefines": [],
    "noEngineReferences": false
}