%YAML 1.1
%TAG !u! tag:unity3d.com,2011:
--- !u!1001 &8710826537037729700
PrefabInstance:
  m_ObjectHideFlags: 0
  serializedVersion: 2
  m_Modification:
    serializedVersion: 3
    m_TransformParent: {fileID: 0}
    m_Modifications:
    - target: {fileID: 183163672701525459, guid: 8a8d56a5ebc682f4891bbad191587ef5,
        type: 3}
      propertyPath: m_Name
      value: Blue Team Tile
      objectReference: {fileID: 0}
    - target: {fileID: 335379691151299538, guid: 8a8d56a5ebc682f4891bbad191587ef5,
        type: 3}
      propertyPath: m_RootOrder
      value: 0
      objectReference: {fileID: 0}
    - target: {fileID: 335379691151299538, guid: 8a8d56a5ebc682f4891bbad191587ef5,
        type: 3}
      propertyPath: m_LocalEulerAnglesHint.x
      value: 0
      objectReference: {fileID: 0}
    - target: {fileID: 335379691151299538, guid: 8a8d56a5ebc682f4891bbad191587ef5,
        type: 3}
      propertyPath: m_LocalEulerAnglesHint.y
      value: 0
      objectReference: {fileID: 0}
    - target: {fileID: 335379691151299538, guid: 8a8d56a5ebc682f4891bbad191587ef5,
        type: 3}
      propertyPath: m_LocalEulerAnglesHint.z
      value: 0
      objectReference: {fileID: 0}
    - target: {fileID: 8214473625662540627, guid: 8a8d56a5ebc682f4891bbad191587ef5,
        type: 3}
      propertyPath: Team
      value: 
      objectReference: {fileID: 11400000, guid: 56964e888ee301d48ba0f80663016293,
        type: 2}
    m_RemovedComponents: []
    m_RemovedGameObjects: []
    m_AddedGameObjects: []
    m_AddedComponents: []
  m_SourcePrefab: {fileID: 100100000, guid: 8a8d56a5ebc682f4891bbad191587ef5, type: 3}
