%YAML 1.1
%TAG !u! tag:unity3d.com,2011:
--- !u!114 &11400000
MonoBehaviour:
  m_ObjectHideFlags: 0
  m_CorrespondingSourceObject: {fileID: 0}
  m_PrefabInstance: {fileID: 0}
  m_PrefabAsset: {fileID: 0}
  m_GameObject: {fileID: 0}
  m_Enabled: 1
  m_EditorHideFlags: 0
  m_Script: {fileID: 11500000, guid: 92a31cc4dacb49c4cae69b87148054e4, type: 3}
  m_Name: Poisoned Status Effect Config
  m_EditorClassIdentifier: 
  Name: Poisoned
  Description: This is a CLASSIC RPG status effect, but just in case you don't know,
    causes the victim to take a small amount of damage each turn.
  KeepOnDeath: 0
  KeepAfterBattle: 0
  Icon: {fileID: 21300000, guid: 8a713fb54272ecf45a47a86a51bfd64a, type: 3}
  StatusEffectScript: {fileID: 11500000, guid: f22ae979012a6b14691d8469f66619b7, type: 3}
  StatusEffectTypeName: PoisonedStatusEffect
  PercentageOfMaxHealthDoneAsDamage: 0.15
