%YAML 1.1
%TAG !u! tag:unity3d.com,2011:
--- !u!114 &11400000
MonoBehaviour:
  m_ObjectHideFlags: 0
  m_CorrespondingSourceObject: {fileID: 0}
  m_PrefabInstance: {fileID: 0}
  m_PrefabAsset: {fileID: 0}
  m_GameObject: {fileID: 0}
  m_Enabled: 1
  m_EditorHideFlags: 0
  m_Script: {fileID: 11500000, guid: af7181f404f1447c0a7a17b3070b952b, type: 3}
  m_Name: Battle Background Sprite Shape Profile 2A
  m_EditorClassIdentifier: 
  m_Angles:
  - m_Start: -180
    m_End: 180
    m_Order: 0
    m_Sprites: []
  m_FillTexture: {fileID: 2800000, guid: fedbc9bf2a8762544983858fe5188d38, type: 3}
  m_CornerSprites:
  - m_CornerType: 0
    m_Sprites:
    - {fileID: 21300000, guid: 608e61deb05c54660bebf5a4dd2ee02d, type: 3}
  - m_CornerType: 1
    m_Sprites:
    - {fileID: 21300000, guid: 608e61deb05c54660bebf5a4dd2ee02d, type: 3}
  - m_CornerType: 2
    m_Sprites:
    - {fileID: 21300000, guid: 608e61deb05c54660bebf5a4dd2ee02d, type: 3}
  - m_CornerType: 3
    m_Sprites:
    - {fileID: 21300000, guid: 608e61deb05c54660bebf5a4dd2ee02d, type: 3}
  - m_CornerType: 4
    m_Sprites:
    - {fileID: 21300000, guid: 608e61deb05c54660bebf5a4dd2ee02d, type: 3}
  - m_CornerType: 5
    m_Sprites:
    - {fileID: 21300000, guid: 608e61deb05c54660bebf5a4dd2ee02d, type: 3}
  - m_CornerType: 6
    m_Sprites:
    - {fileID: 21300000, guid: 608e61deb05c54660bebf5a4dd2ee02d, type: 3}
  - m_CornerType: 7
    m_Sprites:
    - {fileID: 21300000, guid: 608e61deb05c54660bebf5a4dd2ee02d, type: 3}
  m_FillOffset: 0
  m_UseSpriteBorders: 1
