%YAML 1.1
%TAG !u! tag:unity3d.com,2011:
--- !u!114 &11400000
MonoBehaviour:
  m_ObjectHideFlags: 0
  m_CorrespondingSourceObject: {fileID: 0}
  m_PrefabInstance: {fileID: 0}
  m_PrefabAsset: {fileID: 0}
  m_GameObject: {fileID: 0}
  m_Enabled: 1
  m_EditorHideFlags: 0
  m_Script: {fileID: 11500000, guid: 3f91d33c5bc95c746813a4968f633593, type: 3}
  m_Name: Tutorial Enemy Attack Config
  m_EditorClassIdentifier: 
  Name: Ivek's Shank
  Description: FUCK!!!
  SpecialCost: 0
  AttackScript: {fileID: 11500000, guid: ae15520541f185647a8eb9bee5ed160a, type: 3}
  AttackScriptTypeName: TutorialEnemyAttack
  WindUpSpriteAnimation:
    Delay: 0.15
    Sprites:
    - {fileID: -1109822589, guid: 8ab174ee2e709a24e8e2d5ed3e5f736a, type: 3}
  SwingSpriteAnimation:
    Delay: 0.15
    Sprites:
    - {fileID: -1502517892, guid: 8ab174ee2e709a24e8e2d5ed3e5f736a, type: 3}
